{
    "layout1": {
        "type": "layout",
        "height": 600,
        "width": 800,
        "pages": [
            "page1",
            "page2"
        ],
        "page1": {
            "type": "page",
            "title": "List of stations",
            "sections": [
                "section1"
            ]
        },
        "page2": {
            "type": "page",
            "title": "Icon",
            "sections": [
                "section2",
                "section3"
            ]
        },
        "section1": {
            "type": "section",
            "title": "Radio",
            "keys": [
                "tree",
                "streamurl-button",
                "radiolist-button"
            ]
        },
        "section2": {
            "type": "section",
            "title": "Icon",
            "keys": [
                "icon-type"
            ]
        },
        "section3": {
            "type": "section",
            "title": "Symbolic Icon Color",
            "dependency": "icon-type=SYMBOLIC",
            "keys": [
                "color-on"
            ]
        }
    },
    "tree": {
        "type": "list",
        "description": "List of stations",
        "height": 400,
        "columns": [
            {
                "id": "inc",
                "title": "Show in list",
                "type": "boolean",
                "default": true
            },
            {
                "id": "name",
                "title": "Title",
                "type": "string"
            },
            {
                "id": "url",
                "title": "URL",
                "type": "string"
            }
        ],
        "default": [
            {
                "name": "Chillout",
                "url": "http://ic7.101.ru:8000/c15_3",
                "inc": true
            },
            {
                "name": "Mint",
                "url": "http://audiostream.rtl.be/mint",
                "inc": true
            }
        ],
        "value": [
            {
                "inc": true,
                "name": "Chillout",
                "url": "http://ic7.101.ru:8000/c15_3"
            },
            {
                "inc": true,
                "name": "Mint",
                "url": "http://audiostream.rtl.be/mint"
            },
            {
                "inc": true,
                "name": "Ti snat",
                "url": "http://ch2.ice.infomaniak.ch/ch2-32.aac"
            },
            {
                "inc": true,
                "name": "Radio Soummam",
                "url": "https://bejaia.ice.infomaniak.ch/06.aac"
            },
            {
                "inc": true,
                "name": "Radio Tizi",
                "url": "https://tiziouzou.ice.infomaniak.ch/15.aac"
            },
            {
                "inc": true,
                "name": "Chaine 3",
                "url": "https://ch3.ice.infomaniak.ch/ch3-32.aa"
            },
            {
                "inc": true,
                "name": "RFM",
                "url": "https://stream.rfm.fr/rfm.mp3"
            },
            {
                "inc": true,
                "name": "Skyrock",
                "url": "https://icecast.skyrock.net/s/natio_aac_96k"
            },
            {
                "inc": true,
                "name": "RMC fr",
                "url": "https://chai5she.cdn.dvmr.fr/rmcinfo"
            },
            {
                "inc": true,
                "name": "RMC",
                "url": "https://dfm.hostingradio.ru/france96.aacp"
            },
            {
                "inc": true,
                "name": "RMC Les Grandes Gueules",
                "url": "https://audio.bfmtv.com/rmcradio_128.mp3"
            },
            {
                "inc": true,
                "name": "NRJ",
                "url": "http://185.52.127.132/fr/30001/mp3_128.mp3"
            },
            {
                "inc": true,
                "name": "France Music",
                "url": "http://direct.francemusique.fr/live/francemusique-midfi.mp3"
            },
            {
                "inc": true,
                "name": "France culture",
                "url": "http://direct.franceculture.fr/live/franceculture-midfi.mp3"
            },
            {
                "inc": true,
                "name": "France Inter",
                "url": "http://icecast.radiofrance.fr/franceinter-midfi.mp3"
            },
            {
                "inc": true,
                "name": "Radio Tiziri",
                "url": "http://epsilon.shoutca.st:9408/"
            },
            {
                "inc": true,
                "name": "France Maghreb 2",
                "url": "http://francemaghreb2.ice.infomaniak.ch/francemaghreb2-high.mp3"
            },
            {
                "inc": true,
                "name": "Radio Canut",
                "url": "http://live.francra.org:8000/radiocanut"
            },
            {
                "inc": true,
                "name": "WRP - World Radio Paris",
                "url": "http://stream.worldradioparis.com:8000/wrp-128.mp3"
            },
            {
                "inc": true,
                "name": "France Inter",
                "url": "http://direct.franceinter.fr/live/franceinter-midfi.mp3?ID=76zqey582k"
            },
            {
                "inc": true,
                "name": "France Bleu Creuse",
                "url": "http://direct.francebleu.fr/live/fbcreuse-midfi.mp3?ID=76zqey582k"
            },
            {
                "inc": true,
                "name": "CHANTE FRANCE",
                "url": "https://chantefrance.ice.infomaniak.ch/chantefrance-128.mp3"
            },
            {
                "inc": true,
                "name": "Maxi France",
                "url": "https://sr3.publicssl.net/srv/8358/stream"
            },
            {
                "inc": true,
                "name": "CHANTE FRANCE EMOTION",
                "url": "https://chantefranceemotion.ice.infomaniak.ch/chantefranceemotion-128.mp3"
            },
            {
                "inc": true,
                "name": "France Hits Radio",
                "url": "https://api.radioking.io/radio/414490/listen.m3u"
            },
            {
                "inc": true,
                "name": "GENERATIONS FUNK",
                "url": "http://gene-wr05.ice.infomaniak.ch/gene-wr05.mp3"
            },
            {
                "inc": true,
                "name": "GENERATIONS R&B",
                "url": "http://generationfm-slowjam.ice.infomaniak.ch/generationfm-slowjam-high.mp3"
            },
            {
                "inc": true,
                "name": "Radio Shalom",
                "url": "https://listen.radioking.com/radio/130300/stream/170152"
            },
            {
                "inc": true,
                "name": "France Culture",
                "url": "http://direct.franceculture.fr/live/franceculture-midfi.mp3?ID=76zqey582k"
            },
            {
                "inc": true,
                "name": "RCF",
                "url": "http://rcf.streamakaci.com/rcf.mp3"
            },
            {
                "inc": true,
                "name": "PIMG RADIO FRANC",
                "url": "http://hosting-serv.com:9100/"
            },
            {
                "inc": true,
                "name": "BEUR FM",
                "url": "https://beurfm.ice.infomaniak.ch/beurfm-high.mp3"
            },
            {
                "inc": true,
                "name": "Antinea Radio",
                "url": "http://listen.radioking.com/radio/6640/stream/347"
            },
            {
                "inc": true,
                "name": "Soummam FM",
                "url": "http://bejaia.ice.infomaniak.ch/06.aac"
            },
            {
                "inc": true,
                "name": "RMC FM",
                "url": "https://audio.bfmtv.com/rmcradio_128.mp3"
            },
            {
                "inc": true,
                "name": "France culture",
                "url": "https://icecast.radiofrance.fr/franceculture-midfi.mp3"
            },
            {
                "inc": true,
                "name": "Éclectique Radio",
                "url": "https://listen.radioking.com/radio/133684/stream/209602"
            }
        ]
    },
    "streamurl-button": {
        "type": "button",
        "description": "Open radio stream URL search engine",
        "callback": "on_streamurl_button_pressed",
        "tooltip": "Opens a website, which helps you to determine radio stream URLs."
    },
    "radiolist-button": {
        "type": "button",
        "description": "Show URL-list of radio stations",
        "callback": "on_radiolist_button_pressed",
        "tooltip": "Opens a website, which lists URLs of radio stations."
    },
    "icon-type": {
        "type": "combobox",
        "description": "Type",
        "default": "SYMBOLIC",
        "options": {
            "Symbolic Icon": "SYMBOLIC",
            "Full Color Icon": "FULLCOLOR",
            "Bicolor Icon": "BICOLOR"
        },
        "value": "SYMBOLIC"
    },
    "color-on": {
        "type": "colorchooser",
        "default": "#73d216",
        "description": "Color of Symbolic Icon when playing a radio",
        "value": "rgb(238,238,236)"
    },
    "__md5__": "42d61e92efb9601c3a96b86233013ce1"
}